%YAML 1.1
%TAG !u! tag:unity3d.com,2011:
--- !u!1045 &1
EditorBuildSettings:
  m_ObjectHideFlags: 0
  serializedVersion: 2
  m_Scenes:
  - enabled: 1
    path: Assets/Scenes/MainMenu.unity
    guid: 651c288becce1a343bd1a4a950b26814
  - enabled: 1
    path: Assets/Scenes/LVL1.unity
    guid: 2cda990e2423bbf4892e6590ba056729
  - enabled: 1
    path: Assets/Scenes/LVL2.unity
    guid: 911b410b5fed2d241bfb69317cc030e6
  - enabled: 1
    path: Assets/Scenes/LVL3.unity
    guid: 10fa4c64f98988744b3f7f9bdc4b9dd2
  m_configObjects: {}
